…
```
## `summarise()` has grouped output by 'park'. You can override using the
## `.groups` argument.
```

```
## # A tibble: 864 × 2
## # Groups:   park [5]
##    park  total
##    <chr> <int>
##  1 YUCH    136
##  2 YUCH    136
##  3 YUCH    136
##  4 YUCH    136
##  5 YUCH    136
##  6 YUCH    136
##  7 YUCH    136
##  8 YUCH    136
##  9 YUCH    136
## 10 YUCH    136
## # ℹ 854 more rows
```
…
```
## `summarise()` has grouped output by 'pack'. You can override using the
## `.groups` argument.
```

```
## # A tibble: 248 × 2
## # Groups:   pack [46]
##    pack    most_per
##    <chr>      <int>
##  1 mollies       26
##  2 mollies       26
##  3 mollies       26
##  4 mollies       26
##  5 mollies       26
##  6 mollies       26
##  7 mollies       26
##  8 mollies       26
##  9 mollies       26
## 10 mollies       26
## # ℹ 238 more rows
```
…
