…
2. How many genera and species are represented in the data? What are the total number of observations? Which species is most/ least frequently sampled in the study?


```r
deserts %>% distinct(genus) 
```

```
## # A tibble: 26 × 1
##    genus          
##    <chr>          
##  1 Neotoma        
##  2 Dipodomys      
##  3 Perognathus    
##  4 Peromyscus     
##  5 Chaetodipus    
##  6 Sigmodon       
##  7 Onychomys      
##  8 Spermophilus   
##  9 Reithrodontomys
## 10 Sylvilagus     
## # ℹ 16 more rows
```

```r
deserts %>% distinct(species)
```

```
## # A tibble: 40 × 1
##    species     
##    <chr>       
##  1 albigula    
##  2 merriami    
##  3 flavus      
##  4 eremicus    
##  5 spectabilis 
##  6 penicillatus
##  7 hispidus    
##  8 torridus    
##  9 ordii       
## 10 sp.         
## # ℹ 30 more rows
```

```r
deserts %>% count(species) %>% arrange(desc(n))
```

```
## # A tibble: 40 × 2
##    species          n
##    <chr>        <int>
##  1 merriami     10596
##  2 penicillatus  3123
##  3 ordii         3027
##  4 baileyi       2891
##  5 megalotis     2609
##  6 spectabilis   2504
##  7 torridus      2249
##  8 flavus        1597
##  9 eremicus      1299
## 10 albigula      1252
## # ℹ 30 more rows
```
…
5. What is the range of weight for each species included in the study? Remove any observations of weight that are NA so they do not show up in the plot.


```r
weight_range <- deserts %>% filter(!is.na(weight)) %>% 
  group_by(species) %>%
  summarize(min_weight = min(weight), max_weight = max(weight))
weight_range
```

```
## # A tibble: 22 × 3
##    species     min_weight max_weight
##    <chr>            <dbl>      <dbl>
##  1 albigula            30        280
##  2 baileyi             12         55
##  3 eremicus             8         40
##  4 flavus               4         25
##  5 fulvescens           9         20
##  6 fulviventer         24        199
##  7 hispidus            16        140
##  8 intermedius         17         21
##  9 leucogaster         10         56
## 10 leucopus             8         27
## # ℹ 12 more rows
```
…
7. [Dipodomys merriami](https://en.wikipedia.org/wiki/Merriam's_kangaroo_rat) is the most frequently sampled animal in the study. How have the number of observations of this species changed over the years included in the study?


```r
dipodomys_merriami_obs <- deserts %>% filter(species == "merriami") %>% count(year)
dipodomys_merriami_obs
```

```
## # A tibble: 26 × 2
##     year     n
##    <dbl> <int>
##  1  1977   264
##  2  1978   389
##  3  1979   209
##  4  1980   493
##  5  1981   559
##  6  1982   609
##  7  1983   528
##  8  1984   396
##  9  1985   667
## 10  1986   406
## # ℹ 16 more rows
```
…
9. Which two species have, on average, the highest weight? Once you have identified them, make a new column that is a ratio of `weight` to `hindfoot_length`. Make a plot that shows the range of this new ratio and fill by sex.


```r
deserts_filtered <- deserts %>% filter(!is.na(weight))
deserts_filtered %>% group_by(species) %>% summarize(avg_weight = mean(weight))
```

```
## # A tibble: 22 × 2
##    species     avg_weight
##    <chr>            <dbl>
##  1 albigula        159.  
##  2 baileyi          31.7 
##  3 eremicus         21.6 
##  4 flavus            7.92
##  5 fulvescens       13.4 
##  6 fulviventer      58.9 
##  7 hispidus         65.6 
##  8 intermedius      19.2 
##  9 leucogaster      31.6 
## 10 leucopus         19.1 
## # ℹ 12 more rows
```
…
