…
Yes
**7. Which countries have had the largest population growth since 1952?**


```r
population_growth <- gapminder %>%
  group_by(country) %>%
  summarize(population_growth = last(pop) - first(pop)) %>%
  arrange(desc(population_growth))

population_growth
```

```
## # A tibble: 142 × 2
##    country       population_growth
##    <fct>                     <int>
##  1 China                 762419569
##  2 India                 738396331
##  3 United States         143586947
##  4 Indonesia             141495000
##  5 Brazil                133408087
##  6 Pakistan              127924057
##  7 Bangladesh            103561480
##  8 Nigeria               101912068
##  9 Mexico                 78556574
## 10 Philippines            68638596
## # ℹ 132 more rows
```
…
