…
## Load the tidyverse

```r
library(tidyverse)
```

### Mammals Sleep  
1. For this assignment, we are going to use built-in data on mammal sleep patterns. From which publication are these data taken from? Since the data are built-in you can use the help function in R. The name of the data is `msleep`.  

```r
msleep
```

```
## # A tibble: 83 × 11
##    name   genus vore  order conservation sleep_total sleep_rem sleep_cycle awake
##    <chr>  <chr> <chr> <chr> <chr>              <dbl>     <dbl>       <dbl> <dbl>
##  1 Cheet… Acin… carni Carn… lc                  12.1      NA        NA      11.9
##  2 Owl m… Aotus omni  Prim… <NA>                17         1.8      NA       7  
##  3 Mount… Aplo… herbi Rode… nt                  14.4       2.4      NA       9.6
##  4 Great… Blar… omni  Sori… lc                  14.9       2.3       0.133   9.1
##  5 Cow    Bos   herbi Arti… domesticated         4         0.7       0.667  20  
##  6 Three… Brad… herbi Pilo… <NA>                14.4       2.2       0.767   9.6
##  7 North… Call… carni Carn… vu                   8.7       1.4       0.383  15.3
##  8 Vespe… Calo… <NA>  Rode… <NA>                 7        NA        NA      17  
##  9 Dog    Canis carni Carn… domesticated        10.1       2.9       0.333  13.9
## 10 Roe d… Capr… herbi Arti… lc                   3        NA        NA      21  
## # ℹ 73 more rows
## # ℹ 2 more variables: brainwt <dbl>, bodywt <dbl>
```
…
```r
small
```

```
## # A tibble: 59 × 11
##    name   genus vore  order conservation sleep_total sleep_rem sleep_cycle awake
##    <chr>  <chr> <chr> <chr> <chr>              <dbl>     <dbl>       <dbl> <dbl>
##  1 Owl m… Aotus omni  Prim… <NA>                17         1.8      NA       7  
##  2 Mount… Aplo… herbi Rode… nt                  14.4       2.4      NA       9.6
##  3 Great… Blar… omni  Sori… lc                  14.9       2.3       0.133   9.1
##  4 Three… Brad… herbi Pilo… <NA>                14.4       2.2       0.767   9.6
##  5 Vespe… Calo… <NA>  Rode… <NA>                 7        NA        NA      17  
##  6 Dog    Canis carni Carn… domesticated        10.1       2.9       0.333  13.9
##  7 Roe d… Capr… herbi Arti… lc                   3        NA        NA      21  
##  8 Guine… Cavis herbi Rode… domesticated         9.4       0.8       0.217  14.6
##  9 Grivet Cerc… omni  Prim… lc                  10         0.7      NA      14  
## 10 Chinc… Chin… herbi Rode… domesticated        12.5       1.5       0.117  11.5
## # ℹ 49 more rows
## # ℹ 2 more variables: brainwt <dbl>, bodywt <dbl>
```
…
