…
2. Notice that we have some neutral superheros! Who are they? List their names below.  

```r
filter(superhero_info, superhero_info$alignment=="neutral") %>% select(name)
```

```
## # A tibble: 24 × 1
##    name        
##    <chr>       
##  1 Bizarro     
##  2 Black Flash 
##  3 Captain Cold
##  4 Copycat     
##  5 Deadpool    
##  6 Deathstroke 
##  7 Etrigan     
##  8 Galactus    
##  9 Gladiator   
## 10 Indigo      
## # ℹ 14 more rows
```
## `superhero_info`
3. Let's say we are only interested in the variables name, alignment, and "race". How would you isolate these variables from `superhero_info`?

```r
select(superhero_info, alignment, race)
```

```
## # A tibble: 734 × 2
##    alignment race             
##    <chr>     <chr>            
##  1 good      Human            
##  2 good      Icthyo Sapien    
##  3 good      Ungaran          
##  4 bad       Human / Radiation
##  5 bad       Cosmic Entity    
##  6 bad       Human            
##  7 good      <NA>             
##  8 good      Human            
##  9 good      <NA>             
## 10 good      Human            
## # ℹ 724 more rows
```
Isolate them using select().
## Not Human
4. List all of the superheros that are not human.

```r
filter(superhero_info, race!="Human") %>% select(name) #any superhero that isn't fully human
```

```
## # A tibble: 222 × 1
##    name        
##    <chr>       
##  1 Abe Sapien  
##  2 Abin Sur    
##  3 Abomination 
##  4 Abraxas     
##  5 Ajax        
##  6 Alien       
##  7 Amazo       
##  8 Angel       
##  9 Angel Dust  
## 10 Anti-Monitor
## # ℹ 212 more rows
```

## Good and Evil
5. Let's make two different data frames, one focused on the "good guys" and another focused on the "bad guys".

```r
good <- filter(superhero_info, alignment=="good")
good
```

```
## # A tibble: 496 × 10
##    name  gender eye_color race  hair_color height publisher skin_color alignment
##    <chr> <chr>  <chr>     <chr> <chr>       <dbl> <chr>     <chr>      <chr>    
##  1 A-Bo… Male   yellow    Human No Hair       203 Marvel C… <NA>       good     
##  2 Abe … Male   blue      Icth… No Hair       191 Dark Hor… blue       good     
##  3 Abin… Male   blue      Unga… No Hair       185 DC Comics red        good     
##  4 Adam… Male   blue      <NA>  Blond          NA NBC - He… <NA>       good     
##  5 Adam… Male   blue      Human Blond         185 DC Comics <NA>       good     
##  6 Agen… Female blue      <NA>  Blond         173 Marvel C… <NA>       good     
##  7 Agen… Male   brown     Human Brown         178 Marvel C… <NA>       good     
##  8 Agen… Male   <NA>      <NA>  <NA>          191 Marvel C… <NA>       good     
##  9 Alan… Male   blue      <NA>  Blond         180 DC Comics <NA>       good     
## 10 Alex… Male   <NA>      <NA>  <NA>           NA NBC - He… <NA>       good     
## # ℹ 486 more rows
## # ℹ 1 more variable: weight <dbl>
```


```r
bad <- filter(superhero_info, alignment=="bad")
bad
```

```
## # A tibble: 207 × 10
##    name  gender eye_color race  hair_color height publisher skin_color alignment
##    <chr> <chr>  <chr>     <chr> <chr>       <dbl> <chr>     <chr>      <chr>    
##  1 Abom… Male   green     Huma… No Hair       203 Marvel C… <NA>       bad      
##  2 Abra… Male   blue      Cosm… Black          NA Marvel C… <NA>       bad      
##  3 Abso… Male   blue      Human No Hair       193 Marvel C… <NA>       bad      
##  4 Air-… Male   blue      <NA>  White         188 Marvel C… <NA>       bad      
##  5 Ajax  Male   brown     Cybo… Black         193 Marvel C… <NA>       bad      
##  6 Alex… Male   <NA>      Human <NA>           NA Wildstorm <NA>       bad      
##  7 Alien Male   <NA>      Xeno… No Hair       244 Dark Hor… black      bad      
##  8 Amazo Male   red       Andr… <NA>          257 DC Comics <NA>       bad      
##  9 Ammo  Male   brown     Human Black         188 Marvel C… <NA>       bad      
## 10 Ange… Female <NA>      <NA>  <NA>           NA Image Co… <NA>       bad      
## # ℹ 197 more rows
## # ℹ 1 more variable: weight <dbl>
```
…
```
## # A tibble: 2 × 1
##   name 
##   <chr>
## 1 Angel
## 2 Blade
```

```r
bad
```

```
## # A tibble: 207 × 10
##    name  gender eye_color race  hair_color height publisher skin_color alignment
##    <chr> <chr>  <chr>     <chr> <chr>       <dbl> <chr>     <chr>      <chr>    
##  1 Abom… Male   green     Huma… No Hair       203 Marvel C… <NA>       bad      
##  2 Abra… Male   blue      Cosm… Black          NA Marvel C… <NA>       bad      
##  3 Abso… Male   blue      Human No Hair       193 Marvel C… <NA>       bad      
##  4 Air-… Male   blue      <NA>  White         188 Marvel C… <NA>       bad      
##  5 Ajax  Male   brown     Cybo… Black         193 Marvel C… <NA>       bad      
##  6 Alex… Male   <NA>      Human <NA>           NA Wildstorm <NA>       bad      
##  7 Alien Male   <NA>      Xeno… No Hair       244 Dark Hor… black      bad      
##  8 Amazo Male   red       Andr… <NA>          257 DC Comics <NA>       bad      
##  9 Ammo  Male   brown     Human Black         188 Marvel C… <NA>       bad      
## 10 Ange… Female <NA>      <NA>  <NA>           NA Image Co… <NA>       bad      
## # ℹ 197 more rows
## # ℹ 1 more variable: weight <dbl>
```
…
```r
# arrange sorts by value desc does decreasing
```


11. Let's make a new variable that is the ratio of height to weight. Call this variable `height_weight_ratio`.    

```r
superhero_info %>% mutate(height_weight_ratio = height/weight) %>% select(name, height, weight, height_weight_ratio) %>% 
  arrange(desc(height_weight_ratio))
```

```
## # A tibble: 734 × 4
##    name            height weight height_weight_ratio
##    <chr>            <dbl>  <dbl>               <dbl>
##  1 Groot              701      4              175.  
##  2 Galactus           876     16               54.8 
##  3 Fin Fang Foom      975     18               54.2 
##  4 Longshot           188     36                5.22
##  5 Jack-Jack           71     14                5.07
##  6 Rocket Raccoon     122     25                4.88
##  7 Dash               122     27                4.52
##  8 Howard the Duck     79     18                4.39
##  9 Swarm              196     47                4.17
## 10 Yoda                66     17                3.88
## # ℹ 724 more rows
```
…
