…
```
## [1] 203
```
There are 203 countries, the counts are listed above.
4. Refocus the data only to include country, isscaap_taxonomic_group, asfis_species_name, asfis_species_number, year, catch.

```r
fisheries_tidy %>% select(country, isscaap_taxonomic_group, asfis_species_name, asfis_species_number, year, catch)
```

```
## # A tibble: 376,771 × 6
##    country  isscaap_taxonomic_gr…¹ asfis_species_name asfis_species_number  year
##    <Factor> <chr>                  <chr>              <Factor>             <dbl>
##  1 Albania  Sharks, rays, chimaer… Squatinidae        10903XXXXX            1995
##  2 Albania  Sharks, rays, chimaer… Squatinidae        10903XXXXX            1996
##  3 Albania  Sharks, rays, chimaer… Squatinidae        10903XXXXX            1997
##  4 Albania  Sharks, rays, chimaer… Squatinidae        10903XXXXX            1998
##  5 Albania  Sharks, rays, chimaer… Squatinidae        10903XXXXX            1999
##  6 Albania  Sharks, rays, chimaer… Squatinidae        10903XXXXX            2000
##  7 Albania  Sharks, rays, chimaer… Squatinidae        10903XXXXX            2001
##  8 Albania  Sharks, rays, chimaer… Squatinidae        10903XXXXX            2002
##  9 Albania  Sharks, rays, chimaer… Squatinidae        10903XXXXX            2003
## 10 Albania  Sharks, rays, chimaer… Squatinidae        10903XXXXX            2004
## # ℹ 376,761 more rows
## # ℹ abbreviated name: ¹​isscaap_taxonomic_group
## # ℹ 1 more variable: catch <dbl>
```
…
```r
fisheries_tidy %>%
  filter(year == 2000) %>%
  group_by(country) %>%
  summarize(total_catch = sum(catch, na.rm = TRUE)) %>%
  arrange(desc(total_catch))
```

```
## # A tibble: 193 × 2
##    country                  total_catch
##    <Factor>                       <dbl>
##  1 China                          25899
##  2 Russian Federation             12181
##  3 United States of America       11762
##  4 Japan                           8510
##  5 Indonesia                       8341
##  6 Peru                            7443
##  7 Chile                           6906
##  8 India                           6351
##  9 Thailand                        6243
## 10 Korea, Republic of              6124
## # ℹ 183 more rows
```
China
7. Which country caught the most sardines (_Sardina pilchardus_) between the years 1990-2000?

```r
fisheries_tidy %>%
  filter(year >= 1990 & year <= 2000, asfis_species_name == "Sardina pilchardus") %>%
  group_by(country) %>%
  summarize(total_catch = sum(catch, na.rm = TRUE)) %>%
  arrange(desc(total_catch))
```

```
## # A tibble: 37 × 2
##    country               total_catch
##    <Factor>                    <dbl>
##  1 Morocco                      7470
##  2 Spain                        3507
##  3 Russian Federation           1639
##  4 Ukraine                      1030
##  5 France                        966
##  6 Portugal                      818
##  7 Greece                        528
##  8 Italy                         507
##  9 Serbia and Montenegro         478
## 10 Denmark                       477
## # ℹ 27 more rows
```
…
9. Which species had the highest catch total between 2008-2012? (hint: Osteichthyes is not a species)

```r
 fisheries_tidy %>%
  filter(year >= 2008 & year <= 2012) %>%
  group_by(asfis_species_name) %>%
  summarize(total_catch = sum(catch, na.rm = TRUE)) %>%
  arrange(desc(total_catch)) 
```

```
## # A tibble: 1,472 × 2
##    asfis_species_name    total_catch
##    <chr>                       <dbl>
##  1 Osteichthyes               107808
##  2 Theragra chalcogramma       41075
##  3 Engraulis ringens           35523
##  4 Katsuwonus pelamis          32153
##  5 Trichiurus lepturus         30400
##  6 Clupea harengus             28527
##  7 Thunnus albacares           20119
##  8 Scomber japonicus           14723
##  9 Gadus morhua                13253
## 10 Thunnus alalunga            12019
## # ℹ 1,462 more rows
```
Theragra chalcogramma had the greatest catch total.
10. Use the data to do at least one analysis of your choice.


```r
fisheries_tidy %>%
  filter(year >= 2008 & year <= 2012, country == "India") %>%
  group_by(asfis_species_name) %>%
  summarize(total_catch = sum(catch, na.rm = TRUE)) %>%
  arrange(desc(total_catch))
```

```
## # A tibble: 52 × 2
##    asfis_species_name   total_catch
##    <chr>                      <dbl>
##  1 Osteichthyes                4200
##  2 Harpadon nehereus           3172
##  3 Sardinella longiceps        2898
##  4 Natantia                    2780
##  5 Trichiuridae                2047
##  6 Sciaenidae                  1988
##  7 Penaeus monodon             1323
##  8 Cephalopoda                  570
##  9 Thunnus alalunga             544
## 10 Upeneus spp                  540
## # ℹ 42 more rows
```
…
